{
	"productId": "15265629",
	"brand": "DYSON",
	"currentPage": 3,
	"pageSize": 10,
	"totalPages": 433,
	"total": 4324,
	"reviews": [
		{
			"id": "298767548",
			"reviewSource": "ALL",
			"rating": 5,
			"title": "Vacuum",
			"comment": "Powerful vacuum. Easy to clean and accessories are helpful for various needs.",
			"submissionTime": "2023-01-17T06:11:33",
			"reviewerName": "IngridC",
			"reviewerLocation": "Best Buy US",
			"totalNegativeFeedbackCount": 0,
			"totalPositiveFeedbackCount": 0,
			"keyConsiderations": {},
			"photos": [],
			"syndicationSource": { "logoImageUrl": "https://photos-us.bazaarvoice.com/photo/2/cGhvdG86YXR0cmlidXRpb25sb2dvMg/2c286cfa-6f28-441a-8f6b-aac3d192f342", "name": "bestbuy.com" },
			"isRecommended": true,
			"isVerifiedPurchaser": true
		},
		{
			"id": "153546080",
			"reviewSource": "ALL",
			"rating": 2,
			"title": "Didn't last.",
			"comment": "After just over a year. Both of the rollers died. Hair gets caught inside the side with bearings. And it will put off a smell of burnt hair this is despite CONSTANTLY cleaning debris after every vacuum.",
			"submissionTime": "2023-01-16T21:08:50",
			"reviewerName": "DSmulders",
			"reviewerLocation": "Edmonton AB",
			"totalNegativeFeedbackCount": 0,
			"totalPositiveFeedbackCount": 0,
			"keyConsiderations": {},
			"photos": [
				{
					"id": "3707290",
					"thumbnailUrl": "https://photos-us.bazaarvoice.com/photo/2/cGhvdG86ZHlzb24tY2E/84b87de4-65b0-5b91-b972-755c9481914f",
					"imageUrl": "https://photos-us.bazaarvoice.com/photo/2/cGhvdG86ZHlzb24tY2E/e9780313-450a-55d3-9829-1c778918e42c"
				}
			],
			"syndicationSource": { "logoImageUrl": "https://photos-us.bazaarvoice.com/photo/2/cGhvdG86YXR0cmlidXRpb25sb2dvMg/d57ae9fb-d889-418f-bab9-58b2d996e760", "name": "dysoncanada.ca" },
			"isRecommended": false,
			"isVerifiedPurchaser": false
		},
		{
			"id": "238361317",
			"reviewSource": "ALL",
			"rating": 3,
			"title": "Time",
			"comment": "How much time can this  vacuum  the Dyson V8 Animal cordless stick vacuum go before it runs out of power? \nI found it only lasted for one half hour.  Is this good or not so good?\nI like not having to move my cord from room to room. With having bad hands I can manage the handle .  I cannot recommend it to a friend yet until I use it more.\nThe sale price at London Drugs was good so I purchased it from them.",
			"submissionTime": "2023-01-14T22:13:52",
			"reviewerName": "Joan",
			"reviewerLocation": "VICTORIA BC",
			"totalNegativeFeedbackCount": 0,
			"totalPositiveFeedbackCount": 0,
			"keyConsiderations": { "value": 3, "quality": 3, "easeOfUse": 3 },
			"photos": [],
			"syndicationSource": {},
			"isRecommended": false,
			"isVerifiedPurchaser": false
		},
		{
			"id": "298432240",
			"reviewSource": "ALL",
			"rating": 4,
			"title": "Dyson on a budget",
			"comment": "Works well but modest battery life. Takes slightly less than forever to recharge.",
			"submissionTime": "2023-01-13T23:37:48",
			"reviewerName": "Chuck123",
			"reviewerLocation": "Best Buy US",
			"totalNegativeFeedbackCount": 0,
			"totalPositiveFeedbackCount": 0,
			"keyConsiderations": {},
			"photos": [],
			"syndicationSource": { "logoImageUrl": "https://photos-us.bazaarvoice.com/photo/2/cGhvdG86YXR0cmlidXRpb25sb2dvMg/2c286cfa-6f28-441a-8f6b-aac3d192f342", "name": "bestbuy.com" },
			"isRecommended": true,
			"isVerifiedPurchaser": true
		},
		{
			"id": "238148171",
			"reviewSource": "ALL",
			"rating": 5,
			"title": " ",
			"submissionTime": "2023-01-12T01:05:44",
			"reviewerName": "Anonymous reviewer",
			"totalNegativeFeedbackCount": 0,
			"totalPositiveFeedbackCount": 0,
			"keyConsiderations": { "value": 5, "quality": 5, "easeOfUse": 5 },
			"photos": [],
			"syndicationSource": {},
			"isRecommended": true,
			"isVerifiedPurchaser": false
		},
		{
			"id": "298083819",
			"reviewSource": "ALL",
			"rating": 5,
			"title": "Dyson",
			"comment": "I would highly recommend this product. It’s easy to use and lightweight.",
			"submissionTime": "2023-01-10T15:04:38",
			"reviewerName": "BrianD",
			"reviewerLocation": "Best Buy US",
			"totalNegativeFeedbackCount": 0,
			"totalPositiveFeedbackCount": 0,
			"keyConsiderations": {},
			"photos": [],
			"syndicationSource": { "logoImageUrl": "https://photos-us.bazaarvoice.com/photo/2/cGhvdG86YXR0cmlidXRpb25sb2dvMg/2c286cfa-6f28-441a-8f6b-aac3d192f342", "name": "bestbuy.com" },
			"isRecommended": true,
			"isVerifiedPurchaser": true
		},
		{
			"id": "297825133",
			"reviewSource": "ALL",
			"rating": 5,
			"title": "Get this vacuum.",
			"comment": "Amazing product.  Super light and easy to use.  Rarely have to drag out my full sized dyson to vacuum now.",
			"submissionTime": "2023-01-06T21:38:55",
			"reviewerName": "tdawg1225",
			"reviewerLocation": "Best Buy US",
			"totalNegativeFeedbackCount": 0,
			"totalPositiveFeedbackCount": 0,
			"keyConsiderations": {},
			"photos": [],
			"syndicationSource": { "logoImageUrl": "https://photos-us.bazaarvoice.com/photo/2/cGhvdG86YXR0cmlidXRpb25sb2dvMg/2c286cfa-6f28-441a-8f6b-aac3d192f342", "name": "bestbuy.com" },
			"isRecommended": true,
			"isVerifiedPurchaser": true
		},
		{
			"id": "297537889",
			"reviewSource": "ALL",
			"rating": 5,
			"title": "Powerful and easy.",
			"comment": "This is our second Dyson cordless. First one lasted 8 years. the new one is even better. Even bought one for our daughter. Makes doing the job so much easier. Don't even pull out our corded upright anymore. Can't remember life without one.",
			"submissionTime": "2023-01-03T03:14:21",
			"reviewerName": "FrankW",
			"reviewerLocation": "Best Buy US",
			"totalNegativeFeedbackCount": 0,
			"totalPositiveFeedbackCount": 0,
			"keyConsiderations": {},
			"photos": [],
			"syndicationSource": { "logoImageUrl": "https://photos-us.bazaarvoice.com/photo/2/cGhvdG86YXR0cmlidXRpb25sb2dvMg/2c286cfa-6f28-441a-8f6b-aac3d192f342", "name": "bestbuy.com" },
			"isRecommended": true,
			"isVerifiedPurchaser": true
		},
		{
			"id": "237063521",
			"reviewSource": "ALL",
			"rating": 4,
			"title": " ",
			"submissionTime": "2023-01-03T01:05:35",
			"reviewerName": "Ryan",
			"totalNegativeFeedbackCount": 0,
			"totalPositiveFeedbackCount": 0,
			"keyConsiderations": { "value": 5, "quality": 5, "easeOfUse": 3 },
			"photos": [],
			"syndicationSource": {},
			"isRecommended": true,
			"isVerifiedPurchaser": false
		},
		{
			"id": "297492495",
			"reviewSource": "ALL",
			"rating": 5,
			"title": "Works as described",
			"comment": "Exactly as described! It works pretty good and it was super easy to set up",
			"submissionTime": "2023-01-02T16:21:31",
			"reviewerName": "AlejandraP",
			"reviewerLocation": "Best Buy US",
			"totalNegativeFeedbackCount": 0,
			"totalPositiveFeedbackCount": 0,
			"keyConsiderations": {},
			"photos": [],
			"syndicationSource": { "logoImageUrl": "https://photos-us.bazaarvoice.com/photo/2/cGhvdG86YXR0cmlidXRpb25sb2dvMg/2c286cfa-6f28-441a-8f6b-aac3d192f342", "name": "bestbuy.com" },
			"isRecommended": true,
			"isVerifiedPurchaser": true
		}
	]
}
